{
  "images": [
    {
      "id": 27126923,
      "name": "1492.5.0 (beta)",
      "distribution": "CoreOS",
      "slug": "coreos-beta",
      "public": true,
      "regions": [
        "nyc1",
        "sfo1",
        "nyc2",
        "ams2",
        "sgp1",
        "lon1",
        "nyc3",
        "ams3",
        "fra1",
        "tor1",
        "sfo2",
        "blr1"
      ],
      "created_at": "2017-08-17T20:06:30Z",
      "min_disk_size": 20,
      "type": "snapshot",
      "size_gigabytes": 0.34
    },
    {
      "id": 13764801,
      "name": "Elixir on 14.04",
      "distribution": "Ubuntu",
      "slug": null,
      "public": true,
      "regions": [
        "nyc1",
        "sfo1",
        "nyc2",
        "ams2",
        "sgp1",
        "lon1",
        "nyc3",
        "ams3",
        "fra1",
        "tor1",
        "sfo2",
        "blr1"
      ],
      "created_at": "2015-09-30T15:42:07Z",
      "min_disk_size": 30,
      "type": "snapshot",
      "size_gigabytes": 1.85
    },
    {
      "id": 14782899,
      "name": "6.7 x32",
      "distribution": "CentOS",
      "slug": "centos-6-5-x32",
      "public": true,
      "regions": [
        "nyc1",
        "sfo1",
        "nyc2",
        "ams2",
        "sgp1",
        "lon1",
        "nyc3",
        "ams3",
        "fra1",
        "tor1",
        "sfo2",
        "blr1"
      ],
      "created_at": "2015-12-10T17:10:48Z",
      "min_disk_size": 20,
      "type": "snapshot",
      "size_gigabytes": 0.5
    },
    {
      "id": 14782952,
      "name": "6.7 x64",
      "distribution": "CentOS",
      "slug": "centos-6-5-x64",
      "public": true,
      "regions": [
        "nyc1",
        "sfo1",
        "nyc2",
        "ams2",
        "sgp1",
        "lon1",
        "nyc3",
        "ams3",
        "fra1",
        "tor1",
        "sfo2",
        "blr1"
      ],
      "created_at": "2015-12-10T17:19:06Z",
      "min_disk_size": 20,
      "type": "snapshot",
      "size_gigabytes": 0.53
    },
    {
      "id": 16071652,
      "name": "cloudbench-ycsb-on-1404.030216-1",
      "distribution": "Ubuntu",
      "slug": null,
      "public": true,
      "regions": [
        "nyc1",
        "sfo1",
        "nyc2",
        "ams2",
        "sgp1",
        "lon1",
        "nyc3",
        "ams3",
        "fra1",
        "tor1",
        "sfo2",
        "blr1"
      ],
      "created_at": "2016-03-02T16:16:02Z",
      "min_disk_size": 60,
      "type": "snapshot",
      "size_gigabytes": 1.35
    },
    {
      "id": 16071743,
      "name": "cloudbench-hibench-on-1404.030216-1",
      "distribution": "Ubuntu",
      "slug": null,
      "public": true,
      "regions": [
        "nyc1",
        "sfo1",
        "nyc2",
        "ams2",
        "sgp1",
        "lon1",
        "nyc3",
        "ams3",
        "fra1",
        "tor1",
        "sfo2",
        "blr1"
      ],
      "created_at": "2016-03-02T16:41:16Z",
      "min_disk_size": 60,
      "type": "snapshot",
      "size_gigabytes": 2.25
    },
    {
      "id": 16082940,
      "name": "cloudbench-nullworkload-on-1404.030316-6",
      "distribution": "Ubuntu",
      "slug": null,
      "public": true,
      "regions": [
        "nyc1",
        "sfo1",
        "nyc2",
        "ams2",
        "sgp1",
        "lon1",
        "nyc3",
        "ams3",
        "fra1",
        "tor1",
        "sfo2",
        "blr1"
      ],
      "created_at": "2016-03-03T07:39:02Z",
      "min_disk_size": 20,
      "type": "snapshot",
      "size_gigabytes": 0.9
    },
    {
      "id": 16376426,
      "name": "Cassandra on 14.04",
      "distribution": "Ubuntu",
      "slug": "cassandra",
      "public": true,
      "regions": [
        "nyc1",
        "sfo1",
        "nyc2",
        "ams2",
        "sgp1",
        "lon1",
        "nyc3",
        "ams3",
        "fra1",
        "tor1",
        "sfo2",
        "blr1"
      ],
      "created_at": "2016-03-21T04:25:45Z",
      "min_disk_size": 30,
      "type": "snapshot",
      "size_gigabytes": 0.59
    },
    {
      "id": 16623283,
      "name": "7.10 x32",
      "distribution": "Debian",
      "slug": "debian-7-0-x32",
      "public": true,
      "regions": [
        "nyc1",
        "sfo1",
        "nyc2",
        "ams2",
        "sgp1",
        "lon1",
        "nyc3",
        "ams3",
        "fra1",
        "tor1",
        "sfo2",
        "blr1"
      ],
      "created_at": "2016-04-04T18:11:05Z",
      "min_disk_size": 20,
      "type": "snapshot",
      "size_gigabytes": 0.3
    },
    {
      "id": 16623308,
      "name": "7.10 x64",
      "distribution": "Debian",
      "slug": "debian-7-0-x64",
      "public": true,
      "regions": [
        "nyc1",
        "sfo1",
        "nyc2",
        "ams2",
        "sgp1",
        "lon1",
        "nyc3",
        "ams3",
        "fra1",
        "tor1",
        "sfo2",
        "blr1"
      ],
      "created_at": "2016-04-04T18:18:11Z",
      "min_disk_size": 20,
      "type": "snapshot",
      "size_gigabytes": 0.3
    },
    {
      "id": 17384153,
      "name": "7.2 x64",
      "distribution": "CentOS",
      "slug": null,
      "public": true,
      "regions": [
        "nyc1",
        "sfo1",
        "nyc2",
        "ams2",
        "sgp1",
        "lon1",
        "nyc3",
        "ams3",
        "fra1",
        "tor1",
        "sfo2",
        "blr1"
      ],
      "created_at": "2016-05-17T16:17:10Z",
      "min_disk_size": 20,
      "type": "snapshot",
      "size_gigabytes": 0.43
    },
    {
      "id": 17550956,
      "name": "hadoop1",
      "distribution": "Ubuntu",
      "slug": null,
      "public": true,
      "regions": [
        "nyc1",
        "sfo1",
        "nyc2",
        "ams2",
        "sgp1",
        "lon1",
        "nyc3",
        "ams3",
        "fra1",
        "tor1",
        "sfo2",
        "blr1"
      ],
      "created_at": "2016-05-26T22:25:41Z",
      "min_disk_size": 60,
      "type": "snapshot",
      "size_gigabytes": 2.29
    },
    {
      "id": 17551182,
      "name": "cassandra1",
      "distribution": "Ubuntu",
      "slug": null,
      "public": true,
      "regions": [
        "nyc1",
        "sfo1",
        "nyc2",
        "ams2",
        "sgp1",
        "lon1",
        "nyc3",
        "ams3",
        "fra1",
        "tor1",
        "sfo2",
        "blr1"
      ],
      "created_at": "2016-05-26T22:37:32Z",
      "min_disk_size": 60,
      "type": "snapshot",
      "size_gigabytes": 1.43
    },
    {
      "id": 18027532,
      "name": "24 x64",
      "distribution": "Fedora",
      "slug": "fedora-24-x64",
      "public": true,
      "regions": [
        "nyc1",
        "sfo1",
        "nyc2",
        "ams2",
        "sgp1",
        "lon1",
        "nyc3",
        "ams3",
        "fra1",
        "tor1",
        "sfo2",
        "blr1"
      ],
      "created_at": "2016-06-21T22:36:10Z",
      "min_disk_size": 20,
      "type": "snapshot",
      "size_gigabytes": 3.22
    },
    {
      "id": 18285322,
      "name": "GitLab 8.9.4 CE on 14.04",
      "distribution": "Ubuntu",
      "slug": null,
      "public": true,
      "regions": [
        "nyc1",
        "sfo1",
        "nyc2",
        "ams2",
        "sgp1",
        "lon1",
        "nyc3",
        "ams3",
        "fra1",
        "tor1",
        "sfo2",
        "blr1"
      ],
      "created_at": "2016-07-05T07:17:11Z",
      "min_disk_size": 30,
      "type": "snapshot",
      "size_gigabytes": 0.76
    },
    {
      "id": 18290419,
      "name": "7.11 x32",
      "distribution": "Debian",
      "slug": null,
      "public": true,
      "regions": [
        "nyc1",
        "sfo1",
        "nyc2",
        "ams2",
        "sgp1",
        "lon1",
        "nyc3",
        "ams3",
        "fra1",
        "tor1",
        "sfo2",
        "blr1"
      ],
      "created_at": "2016-07-05T21:26:04Z",
      "min_disk_size": 20,
      "type": "snapshot",
      "size_gigabytes": 20.97
    },
    {
      "id": 18325354,
      "name": "7.2 x64",
      "distribution": "CentOS",
      "slug": null,
      "public": true,
      "regions": [
        "nyc1",
        "sfo1",
        "nyc2",
        "ams2",
        "sgp1",
        "lon1",
        "nyc3",
        "ams3",
        "fra1",
        "tor1",
        "sfo2",
        "blr1"
      ],
      "created_at": "2016-07-07T16:11:45Z",
      "min_disk_size": 20,
      "type": "snapshot",
      "size_gigabytes": 20.97
    },
    {
      "id": 18398713,
      "name": "WordPress on 14.04",
      "distribution": "Ubuntu",
      "slug": "wordpress",
      "public": true,
      "regions": [
        "nyc1",
        "sfo1",
        "nyc2",
        "ams2",
        "sgp1",
        "lon1",
        "nyc3",
        "ams3",
        "fra1",
        "tor1",
        "sfo2",
        "blr1"
      ],
      "created_at": "2016-07-11T06:19:34Z",
      "min_disk_size": 30,
      "type": "snapshot",
      "size_gigabytes": 0.51
    },
    {
      "id": 18835303,
      "name": "7.2 x64",
      "distribution": "CentOS",
      "slug": "centos-7-0-x64",
      "public": true,
      "regions": [
        "nyc1",
        "sfo1",
        "nyc2",
        "ams2",
        "sgp1",
        "lon1",
        "nyc3",
        "ams3",
        "fra1",
        "tor1",
        "sfo2",
        "blr1"
      ],
      "created_at": "2016-08-03T00:52:23Z",
      "min_disk_size": 20,
      "type": "snapshot",
      "size_gigabytes": 0.47
    },
    {
      "id": 21419098,
      "name": "[EOL] 7.2.1511 x64",
      "distribution": "CentOS",
      "slug": null,
      "public": true,
      "regions": [
        "nyc1",
        "sfo1",
        "nyc2",
        "ams2",
        "sgp1",
        "lon1",
        "nyc3",
        "ams3",
        "fra1",
        "tor1",
        "sfo2",
        "blr1"
      ],
      "created_at": "2016-12-09T14:08:49Z",
      "min_disk_size": 20,
      "type": "snapshot",
      "size_gigabytes": 0.5
    }
  ],
  "links": {
    "pages": {
      "last": "https://api.digitalocean.com/v2/images?page=5",
      "next": "https://api.digitalocean.com/v2/images?page=2"
    }
  },
  "meta": {
    "total": 93
  }
}